Number of distinct ProteinId: 10029 
Number of distinct ProteinId (tr): 1096 
Number of distinct ProteinId (sp): 8828 
Total number of genes: 9500 
Number of genes (tr): 1004 
Number of genes (sp): 8633 
Unique number of GroupId: 8030 
Cleaned Peptide Sequences:
# A tibble: 289,941 × 1
   PeptideSequenceClean
   <chr>               
 1 EGLDISHLQGQEELLSSQEK
 2 EGLDISHLQGQEELLSSQEK
 3 FQVDPVSENAGR        
 4 GPIVPLNVADQK        
 5 GPIVPLNVADQK        
 6 GPIVPLNVADQK        
 7 GPIVPLNVADQK        
 8 GPIVPLNVADQK        
 9 GPIVPLNVADQK        
10 GPIVPLNVADQK        
# ℹ 289,931 more rows
# ℹ Use `print(n = ...)` to see more rows
