Number of distinct ProteinId: 9373 
Number of distinct ProteinId (tr): 980 
Number of distinct ProteinId (sp): 8305 
Total number of genes: 8933 
Number of genes (tr): 908 
Number of genes (sp): 8138 
Unique number of GroupId: 7517 
Cleaned Peptide Sequences:
# A tibble: 214,161 × 1
   PeptideSequenceClean
   <chr>               
 1 EGLDISHLQGQEELLSSQEK
 2 FQVDPVSENAGR        
 3 GPIVPLNVADQK        
 4 GPIVPLNVADQK        
 5 GPIVPLNVADQK        
 6 GPIVPLNVADQK        
 7 GPIVPLNVADQK        
 8 GPIVPLNVADQK        
 9 GPIVPLNVADQK        
10 TPTQPLLK            
# ℹ 214,151 more rows
# ℹ Use `print(n = ...)` to see more rows
