Number of distinct ProteinId: 9172 
Number of distinct ProteinId (tr): 829 
Number of distinct ProteinId (sp): 8248 
Total number of genes: 8876 
Number of genes (tr): 800 
Number of genes (sp): 8110 
Unique number of GroupId: 7721 
Cleaned Peptide Sequences:
# A tibble: 198,240 × 1
   PeptideSequenceClean
   <chr>               
 1 EQDIADK             
 2 LNELLQEHSR          
 3 LNELLQEHSR          
 4 NSGLCICCEVFVGPR     
 5 VANGDGM*PGDEQAENK   
 6 WTAPEAALYGR         
 7 WTAPEAALYGR         
 8 WTAPEAALYGR         
 9 FVTDIDELGK          
10 FVTDIDELGK          
# ℹ 198,230 more rows
# ℹ Use `print(n = ...)` to see more rows
