Number of distinct ProteinId: 10005 
Number of distinct ProteinId (tr): 1049 
Number of distinct ProteinId (sp): 8851 
Total number of genes: 9505 
Number of genes (tr): 966 
Number of genes (sp): 8661 
Unique number of GroupId: 8065 
Cleaned Peptide Sequences:
# A tibble: 283,595 × 1
   PeptideSequenceClean
   <chr>               
 1 EGAQYLM*QAAGLGR     
 2 EGAQYLM*QAAGLGR     
 3 EGAQYLM*QAAGLGR     
 4 EGAQYLMQAAGLGR      
 5 EGLDISHLQGQEELLSSQEK
 6 EGLDISHLQGQEELLSSQEK
 7 EGLDISHLQGQEELLSSQEK
 8 FQVDPVSENAGR        
 9 FQVDPVSENAGR        
10 FQVDPVSENAGR        
# ℹ 283,585 more rows
# ℹ Use `print(n = ...)` to see more rows
